com\WorkMotion\pages\BasePage.class
com\WorkMotion\utilities\BrowserUtils$1.class
com\WorkMotion\utilities\Driver.class
com\WorkMotion\utilities\ConfigurationReader.class
com\WorkMotion\utilities\BrowserUtils.class
com\WorkMotion\pages\MainPage.class
com\WorkMotion\step_definitions\AddEmployeeDefs.class
com\WorkMotion\pages\AddEmployeePage.class
com\WorkMotion\step_definitions\Hooks.class
com\WorkMotion\runners\CukesRunner.class
